<?xml version="1.0" encoding="utf-8"?>
<!-- Generator: Adobe Illustrator 21.0.0, SVG Export Plug-In . SVG Version: 6.00 Build 0)  -->
<svg version="1.1" id="Слой_1" xmlns="http://www.w3.org/2000/svg" viewBox="0 0 30 36.34">

<path class="cls-1" d="M12.93.47a1.06,1.06,0,0,0-.75.31l-5,5L4.24,2.89a1.06,1.06,0,0,0-.75-.31h0a1.06,1.06,0,0,0-.75.31L1.55,4.08a1.06,1.06,0,0,0,0,1.5l4.86,4.86a1.08,1.08,0,0,0,1.49,0l7-7a1,1,0,0,0,.31-.74A1.06,1.06,0,0,0,14.87,2L13.68.78a1.07,1.07,0,0,0-.75-.32Z" transform="translate(6.79 10.1)"/>

<path class="cls-1" d="M22.57,3.81h0A4.16,4.16,0,0,0,23,.31a4.3,4.3,0,0,0-2.5-2.66,2.18,2.18,0,0,1-1.37-1.8,4.28,4.28,0,0,0-1.73-3,4.51,4.51,0,0,0-3.63-.75,2.36,2.36,0,0,1-2.26-.7A4.43,4.43,0,0,0,8.21-10.1a4.41,4.41,0,0,0-3.3,1.46,2.36,2.36,0,0,1-2.27.7A4.52,4.52,0,0,0-1-7.19a4.28,4.28,0,0,0-1.73,3,2.18,2.18,0,0,1-1.37,1.8A4.3,4.3,0,0,0-6.59.31a4.16,4.16,0,0,0,.44,3.5A2,2,0,0,1-6.15,6a4.16,4.16,0,0,0-.44,3.5,4.33,4.33,0,0,0,2.5,2.66A2.16,2.16,0,0,1-2.72,14a3.89,3.89,0,0,0,.26,1.12l-3.09,5.36a1.06,1.06,0,0,0,0,1.06,1.06,1.06,0,0,0,.93.53l4.29-.08L1.76,25.7a1,1,0,0,0,.92.54,1,1,0,0,0,.91-.53l3.45-6a4.64,4.64,0,0,0,2.34,0l3.45,6a1,1,0,0,0,.92.53,1.07,1.07,0,0,0,.92-.54l2.08-3.76,4.3.08a1.08,1.08,0,0,0,.92-.53,1,1,0,0,0,0-1.06l-3.09-5.36A3.9,3.9,0,0,0,19.14,14a2.16,2.16,0,0,1,1.37-1.8A4.33,4.33,0,0,0,23,9.5,4.16,4.16,0,0,0,22.57,6,2,2,0,0,1,22.57,3.81Zm-11,14.63a2.38,2.38,0,0,1,2.26-.7A4.5,4.5,0,0,0,17.41,17l.1-.08,1.7,2.95-3.06-.05a1,1,0,0,0-.94.54L13.73,23l-2.5-4.31A2.65,2.65,0,0,0,11.52,18.44Zm5.69-5.55a4.16,4.16,0,0,0-.17.88,2.44,2.44,0,0,1-.07.39,2.21,2.21,0,0,1-.81,1.13,2.38,2.38,0,0,1-1.92.39,4.43,4.43,0,0,0-2.42.13,4.18,4.18,0,0,0-1.48.84l0,0h0l0,0L9.94,17a2.07,2.07,0,0,1-.62.48,2.5,2.5,0,0,1-.76.24,2.11,2.11,0,0,1-.71,0,2.42,2.42,0,0,1-.76-.25A2.12,2.12,0,0,1,6.47,17a3.44,3.44,0,0,0-.27-.27l-.07-.07a4.41,4.41,0,0,0-1.54-.89,4.5,4.5,0,0,0-2.41-.12,2.38,2.38,0,0,1-1.92-.39A2.07,2.07,0,0,1-.11,15a2,2,0,0,1-.51-1.18,3.61,3.61,0,0,0-.17-.88A4.29,4.29,0,0,0-3.3,10.2,2.22,2.22,0,0,1-4.58,8.85a2,2,0,0,1,.22-1.73,4.14,4.14,0,0,0,0-4.44A2,2,0,0,1-4.58,1,2.22,2.22,0,0,1-3.3-.39,4.27,4.27,0,0,0-.62-4,2.15,2.15,0,0,1,.26-5.49a2.38,2.38,0,0,1,1.92-.39A4.44,4.44,0,0,0,6.47-7.23,2.35,2.35,0,0,1,8.21-8,2.35,2.35,0,0,1,10-7.23a4.44,4.44,0,0,0,4.29,1.35,2.38,2.38,0,0,1,1.92.39A2.15,2.15,0,0,1,17-4,4.27,4.27,0,0,0,19.72-.39,2.19,2.19,0,0,1,21,1a2,2,0,0,1-.22,1.72,4.14,4.14,0,0,0,0,4.44A2,2,0,0,1,21,8.85a2.19,2.19,0,0,1-1.28,1.35A4.29,4.29,0,0,0,17.21,12.89Zm-18.3,4L-1,17a4.47,4.47,0,0,0,3.63.74,2.35,2.35,0,0,1,2.26.7,4,4,0,0,0,.29.29L2.7,23,1.21,20.36a1.06,1.06,0,0,0-.94-.54l-3.06.05Z" transform="translate(6.79 10.1)"/>

<path class="cls-1" d="M15.42-1.7h0A1,1,0,0,0,15-1a1.11,1.11,0,0,0,.19.79A8.56,8.56,0,0,1,16.87,4.9,8.66,8.66,0,0,1,2.65,11.55a1.07,1.07,0,0,0-.77-.25,1.07,1.07,0,0,0-.72.38,1.35,1.35,0,0,0-.2.37,1.08,1.08,0,0,0,.33,1.12,10.79,10.79,0,0,0,5.49,2.41,11.59,11.59,0,0,0,1.43.1,9.48,9.48,0,0,0,1.44-.1,10.73,10.73,0,0,0,6.8-3.74A10.77,10.77,0,0,0,16.9-1.48,1.06,1.06,0,0,0,15.42-1.7Z" transform="translate(6.79 10.1)"/>

<path class="cls-1" d="M-.45,4.9A8.67,8.67,0,0,1,8.21-3.76,8.46,8.46,0,0,1,11.8-3a1.07,1.07,0,0,0,1.4-.52,1.06,1.06,0,0,0-.52-1.4,10.58,10.58,0,0,0-4.47-1,10.79,10.79,0,0,0-9.91,15,1.06,1.06,0,0,0,1,.64,1.06,1.06,0,0,0,.42-.09,1,1,0,0,0,.56-.57,1,1,0,0,0,0-.81A8.46,8.46,0,0,1-.45,4.9Z" transform="translate(6.79 10.1)"/>

</svg>
